<?xml version="1.0" standalone="no"?>
<!DOCTYPE svg PUBLIC "-//W3C//DTD SVG 1.1//EN" "http://www.w3.org/Graphics/SVG/1.1/DTD/svg11.dtd">
<svg xmlns="http://www.w3.org/2000/svg">
<metadata>Copyright (C) 2021 by original authors @ fontello.com</metadata>
<defs>
<font id="fontello" horiz-adv-x="1000" >
<font-face font-family="fontello" font-weight="400" font-stretch="normal" units-per-em="1000" ascent="850" descent="-150" />
<missing-glyph horiz-adv-x="1000" />
<glyph glyph-name="down-open" unicode="&#xe800;" d="M939 399l-414-413q-10-11-25-11t-25 11l-414 413q-11 11-11 26t11 25l93 92q10 11 25 11t25-11l296-296 296 296q11 11 25 11t26-11l92-92q11-11 11-25t-11-26z" horiz-adv-x="1000" />

<glyph glyph-name="left-open" unicode="&#xe801;" d="M654 682l-297-296 297-297q10-10 10-25t-10-25l-93-93q-11-10-25-10t-25 10l-414 415q-11 10-11 25t11 25l414 414q10 11 25 11t25-11l93-93q10-10 10-25t-10-25z" horiz-adv-x="714.3" />

<glyph glyph-name="right-open" unicode="&#xe802;" d="M618 361l-414-415q-11-10-25-10t-25 10l-93 93q-11 11-11 25t11 25l296 297-296 296q-11 11-11 25t11 25l93 93q10 11 25 11t25-11l414-414q10-11 10-25t-10-25z" horiz-adv-x="714.3" />

<glyph glyph-name="up-open" unicode="&#xe803;" d="M939 107l-92-92q-11-10-26-10t-25 10l-296 297-296-297q-11-10-25-10t-25 10l-93 92q-11 11-11 26t11 25l414 414q11 10 25 10t25-10l414-414q11-11 11-25t-11-26z" horiz-adv-x="1000" />

<glyph glyph-name="wrench" unicode="&#xe804;" d="M214 29q0 14-10 25t-25 10-25-10-11-25 11-25 25-11 25 11 10 25z m360 234l-381-381q-21-20-50-20-29 0-51 20l-59 61q-21 20-21 50 0 29 21 51l380 380q22-55 64-97t97-64z m354 243q0-22-13-59-27-75-92-122t-144-46q-104 0-177 73t-73 177 73 176 177 74q32 0 67-10t60-26q9-6 9-15t-9-16l-163-94v-125l108-60q2 2 44 27t75 45 40 20q8 0 13-5t5-14z" horiz-adv-x="928.6" />

<glyph glyph-name="cog-alt" unicode="&#xe805;" d="M500 350q0 59-42 101t-101 42-101-42-42-101 42-101 101-42 101 42 42 101z m429-286q0 29-22 51t-50 21-50-21-21-51q0-29 21-50t50-21 51 21 21 50z m0 572q0 29-22 50t-50 21-50-21-21-50q0-30 21-51t50-21 51 21 21 51z m-215-235v-103q0-6-4-11t-8-6l-87-14q-6-19-18-42 19-27 50-64 4-6 4-11 0-7-4-11-12-17-46-50t-43-33q-7 0-12 4l-64 50q-21-11-43-17-6-60-13-87-4-13-17-13h-104q-6 0-11 4t-5 10l-13 85q-19 6-42 18l-66-50q-4-4-11-4-6 0-12 4-80 75-80 90 0 5 4 10 5 8 23 30t26 34q-13 24-20 46l-85 13q-5 1-9 5t-4 11v104q0 5 4 10t9 6l86 14q7 19 18 42-19 27-50 64-4 6-4 11 0 7 4 12 12 16 46 49t44 33q6 0 12-4l64-50q19 10 43 18 6 60 13 86 3 13 16 13h104q6 0 11-4t6-10l13-85q19-6 42-17l65 49q5 4 12 4 6 0 11-4 81-75 81-90 0-4-4-10-7-9-24-30t-25-34q13-27 19-46l85-12q6-2 9-6t4-11z m357-298v-78q0-9-83-17-6-15-16-29 28-63 28-77 0-2-2-4-68-40-69-40-5 0-26 27t-29 37q-11-1-17-1t-17 1q-7-11-29-37t-25-27q-1 0-69 40-3 2-3 4 0 14 29 77-10 14-17 29-83 8-83 17v78q0 9 83 18 7 16 17 29-29 63-29 77 0 2 3 4 2 1 19 11t33 19 17 9q4 0 25-26t29-38q12 1 17 1t17-1q28 40 51 63l4 1q2 0 69-39 2-2 2-4 0-14-28-77 9-13 16-29 83-9 83-18z m0 572v-78q0-9-83-18-6-15-16-29 28-63 28-77 0-2-2-4-68-39-69-39-5 0-26 26t-29 38q-11-1-17-1t-17 1q-7-12-29-38t-25-26q-1 0-69 39-3 2-3 4 0 14 29 77-10 14-17 29-83 9-83 18v78q0 9 83 17 7 16 17 29-29 63-29 77 0 2 3 4 2 1 19 11t33 19 17 9q4 0 25-26t29-37q12 1 17 1t17-1q28 39 51 62l4 1q2 0 69-39 2-2 2-4 0-14-28-77 9-13 16-29 83-8 83-17z" horiz-adv-x="1071.4" />

<glyph glyph-name="cog" unicode="&#xe806;" d="M571 350q0 59-41 101t-101 42-101-42-42-101 42-101 101-42 101 42 41 101z m286 61v-124q0-7-4-13t-11-7l-104-16q-10-30-21-51 19-27 59-77 6-6 6-13t-5-13q-15-21-55-61t-53-39q-7 0-14 5l-77 60q-25-13-51-21-9-76-16-104-4-16-20-16h-124q-8 0-14 5t-6 12l-16 103q-27 9-50 21l-79-60q-6-5-14-5-8 0-14 6-70 64-92 94-4 5-4 13 0 6 5 12 8 12 28 37t30 40q-15 28-23 55l-102 15q-7 1-11 7t-5 13v124q0 7 5 13t10 7l104 16q8 25 22 51-23 32-60 77-6 7-6 14 0 5 5 12 15 20 55 60t53 40q7 0 15-5l77-60q24 13 50 21 9 76 17 104 3 16 20 16h124q7 0 13-5t7-12l15-103q28-9 51-20l79 59q5 5 13 5 7 0 14-5 72-67 92-95 4-5 4-12 0-7-4-13-9-12-29-37t-30-40q15-28 23-54l102-16q7-1 12-7t4-13z" horiz-adv-x="857.1" />

<glyph glyph-name="login" unicode="&#xe807;" d="M661 350q0-14-11-25l-303-304q-11-10-26-10t-25 10-10 25v161h-250q-15 0-25 11t-11 25v214q0 15 11 25t25 11h250v161q0 14 10 25t25 10 26-10l303-304q11-10 11-25z m196 196v-392q0-67-47-114t-114-47h-178q-7 0-13 5t-5 13q0 2-1 11t0 15 2 13 5 11 12 3h178q37 0 64 27t26 63v392q0 37-26 64t-64 26h-174t-6 0-6 2-5 3-4 5-1 8q0 2-1 11t0 15 2 13 5 11 12 3h178q67 0 114-47t47-114z" horiz-adv-x="857.1" />

<glyph glyph-name="logout" unicode="&#xe808;" d="M357 46q0-2 1-11t0-14-2-14-5-11-12-3h-178q-67 0-114 47t-47 114v392q0 67 47 114t114 47h178q8 0 13-5t5-13q0-2 1-11t0-15-2-13-5-11-12-3h-178q-37 0-63-26t-27-64v-392q0-37 27-63t63-27h174t6 0 7-2 4-3 4-5 1-8z m518 304q0-14-11-25l-303-304q-11-10-25-10t-25 10-11 25v161h-250q-14 0-25 11t-11 25v214q0 15 11 25t25 11h250v161q0 14 11 25t25 10 25-10l303-304q11-10 11-25z" horiz-adv-x="928.6" />

<glyph glyph-name="download-outline" unicode="&#xe809;" d="M936 64l2-261q0-22-16-37t-37-15l-832 0q-22 0-37 15t-16 37q0 261 1 261 0 11 2 16l105 313q12 35 48 35l29 0-35 36q-46 46-46 110t46 110q31 31 76 41t87-3l0 71q0 65 45 110t111 46 110-46 46-110l0-71q41 13 86 3t77-41q46-46 46-110t-46-110l-35-36 28 0q37 0 49-35l105-313q1-5 1-16z m-712 546q-15-15-15-37t15-36l245-244 245 245q15 15 15 36t-15 36-37 15-37-15l-119-118 0 301q0 21-15 37t-37 15-37-15-16-37l0-301-118 118q-17 17-38 17-20 0-36-17z m-30-286l-86-260 723 0-87 260-96 0-179-177-179 177-96 0z m640-469l0 157-730 0 0-157 730 0z" horiz-adv-x="938" />

<glyph glyph-name="upload-outline" unicode="&#xe80a;" d="M936 65l2-261q0-22-16-37t-37-15l-832 0q-22 0-37 15t-16 37l0 261q0 6 3 16l103 313q8 21 30 31-35 46-31 104t45 100l319 319 319-319q41-41 45-100t-32-104q22-10 29-31l105-313q1-5 1-16z m-712 490q-15-15-15-37t15-37 37-15 37 15l118 119 0-301q0-21 16-36t37-15 37 15 15 36l0 301 119-119q15-15 37-15t37 15 15 37-15 37l-245 245z m-30-230l-86-260 722 0-86 260-119 0 0-26q0-65-46-111t-110-45-111 45-45 111l0 26-119 0z m-90-469l730 0 0 157-730 0 0-157z" horiz-adv-x="938" />

<glyph glyph-name="download" unicode="&#xe80b;" d="M714 590q15-15 15-37t-15-36l-245-244-245 244q-15 15-15 36t15 37 36 15q23 0 38-15l118-120 0 349q0 21 16 37t37 16 37-16 15-37l0-349 119 120q14 14 38 14 22 0 36-14z m222-448l2-261q0-21-16-36t-37-16l-832 0q-22 0-37 16t-16 36q0 261 1 261 0 11 2 16l105 312q12 37 48 37l12 0q8-18 18-28l78-76-70 0-86-261 722 0-86 261-70 0 77 76q10 10 19 28l11 0q37 0 49-37l105-312q1-5 1-16z" horiz-adv-x="938" />

<glyph glyph-name="upload" unicode="&#xe80c;" d="M936 128l2-260q0-21-16-37t-37-15l-832 0q-22 0-37 15t-16 37q0 260 1 260 0 12 2 17l105 312q12 36 48 36l209 0 0-103-171 0-86-262 722 0-86 262-171 0 0 103 208 0q37 0 49-36l105-312q1-5 1-17z m-258 423q-24 0-38 14l-119 120 0-348q0-21-15-37t-37-15-37 15-16 37l0 348-118-120q-14-14-38-14-22 0-36 14-15 15-15 36t15 37l245 247 245-247q15-15 15-37t-15-36q-14-14-36-14z" horiz-adv-x="938" />

<glyph glyph-name="ok-outline" unicode="&#xe80d;" d="M365-41q-66 0-111 45l-208 209q-46 46-46 110 0 65 46 111 44 44 110 44t110-44l63-62 160 287q20 38 57 60t79 22q88 0 134-76t2-157l-260-469q-43-80-136-80z m-209 417q-21 0-37-16t-15-37q0-20 16-36l208-209q18-19 44-15t38 26l260 469q11 23 4 43t-24 28q-19 10-39 4t-31-24l-227-408-160 160q-15 15-37 15z" horiz-adv-x="783" />

<glyph glyph-name="ok" unicode="&#xe80e;" d="M625 676q38-20 49-63t-9-80l-260-469q-30-53-91-53-43 0-74 31l-209 207q-31 32-31 74t31 74 74 31 74-31l111-110 193 347q20 38 62 50t80-8z" horiz-adv-x="679" />

<glyph glyph-name="cancel-outline" unicode="&#xe80f;" d="M729 143q0-64-46-110t-110-47-110 47l-98 97-99-97q-43-44-110-44t-110 44q-46 46-46 110 0 65 46 111l98 98-98 97q-46 46-46 111 0 64 46 110 44 44 110 44t110-44l99-97 98 97q43 44 110 44t111-44q45-45 45-110 0-66-45-111l-99-97 99-98q45-45 45-111z m-364 135l171-171q15-15 37-15t37 15 15 36q0 22-15 37l-171 172 171 171q15 15 15 37 0 22-15 37t-37 15-37-15l-171-172-172 172q-15 15-37 15t-36-15q-16-17-16-37 0-21 16-37l171-171-171-172q-16-16-16-37 0-20 16-36 15-15 36-15t37 15z" horiz-adv-x="729" />

<glyph glyph-name="cancel" unicode="&#xe810;" d="M596 632q32-31 32-74t-32-74l-135-135 135-135q32-31 32-73t-32-74q-30-30-73-30t-74 30l-135 135-135-135q-30-30-74-30t-74 30q-31 31-31 74t31 73l135 135-135 135q-31 32-31 74t31 74q30 31 74 31t74-31l135-135 135 135q30 31 74 31t73-31z" horiz-adv-x="628" />

<glyph glyph-name="popup" unicode="&#xe811;" d="M311 504l489 0c36 0 65-30 65-65l0-404c0-35-29-65-65-65l-489 0c-35 0-65 30-65 65l0 404c0 35 30 65 65 65z m454-94l-419 0 0-346 419 0 0 346z m-146 181l-101 0 0 44-417 0 0-336 58 0 0-95-93 0c-36 0-66 30-66 65l0 395c0 36 30 66 66 66l488 0c36 0 65-30 65-66l0-73z" horiz-adv-x="865" />

<glyph glyph-name="download-1" unicode="&#xe812;" d="M714 100q0 15-10 25t-25 11-25-11-11-25 11-25 25-11 25 11 10 25z m143 0q0 15-10 25t-26 11-25-11-10-25 10-25 25-11 26 11 10 25z m72 125v-179q0-22-16-37t-38-16h-821q-23 0-38 16t-16 37v179q0 22 16 38t38 16h259l75-76q33-32 76-32t76 32l76 76h259q22 0 38-16t16-38z m-182 318q10-23-8-39l-250-250q-10-11-25-11t-25 11l-250 250q-17 16-8 39 10 21 33 21h143v250q0 15 11 25t25 11h143q14 0 25-11t10-25v-250h143q24 0 33-21z" horiz-adv-x="928.6" />

<glyph glyph-name="upload-1" unicode="&#xe813;" d="M714 29q0 14-10 25t-25 10-25-10-11-25 11-25 25-11 25 11 10 25z m143 0q0 14-10 25t-26 10-25-10-10-25 10-25 25-11 26 11 10 25z m72 125v-179q0-22-16-38t-38-16h-821q-23 0-38 16t-16 38v179q0 22 16 38t38 15h238q12-31 39-51t62-20h143q34 0 61 20t40 51h238q22 0 38-15t16-38z m-182 361q-9-22-33-22h-143v-250q0-15-10-25t-25-11h-143q-15 0-25 11t-11 25v250h-143q-23 0-33 22-9 22 8 39l250 250q10 10 25 10t25-10l250-250q18-17 8-39z" horiz-adv-x="928.6" />

<glyph glyph-name="ok-1" unicode="&#xe814;" d="M933 534q0-22-16-38l-404-404-76-76q-16-15-38-15t-38 15l-76 76-202 202q-15 16-15 38t15 38l76 76q16 16 38 16t38-16l164-165 366 367q16 16 38 16t38-16l76-76q16-15 16-38z" horiz-adv-x="1000" />

<glyph glyph-name="cancel-1" unicode="&#xe815;" d="M724 112q0-22-15-38l-76-76q-16-15-38-15t-38 15l-164 165-164-165q-16-15-38-15t-38 15l-76 76q-16 16-16 38t16 38l164 164-164 164q-16 16-16 38t16 38l76 76q16 16 38 16t38-16l164-164 164 164q16 16 38 16t38-16l76-76q15-15 15-38t-15-38l-164-164 164-164q15-15 15-38z" horiz-adv-x="785.7" />

<glyph glyph-name="tags" unicode="&#xe816;" d="M250 600q0 30-21 51t-50 20-51-20-21-51 21-50 51-21 50 21 21 50z m595-321q0-30-20-51l-274-274q-22-21-51-21-30 0-50 21l-399 399q-21 21-36 57t-15 65v232q0 29 21 50t50 22h233q29 0 65-15t57-36l399-399q20-21 20-50z m215 0q0-30-21-51l-274-274q-22-21-51-21-20 0-33 8t-29 25l262 262q21 21 21 51 0 29-21 50l-399 399q-21 21-57 36t-65 15h125q29 0 65-15t57-36l399-399q21-21 21-50z" horiz-adv-x="1071.4" />

<glyph glyph-name="record" unicode="&#xe817;" d="M350 700q146 0 248-102t102-248q0-144-102-247t-248-103-248 103-102 247q0 146 102 248t248 102z" horiz-adv-x="700" />

<glyph glyph-name="cd" unicode="&#xe818;" d="M460 810q190 0 325-135t135-325-135-325-325-135-325 135-135 325 135 325 325 135z m0-610q62 0 106 44t44 106q0 64-43 107t-107 43q-62 0-106-44t-44-106 44-106 106-44z" horiz-adv-x="920" />

<glyph glyph-name="attention" unicode="&#xe819;" d="M571 83v106q0 8-5 13t-12 5h-108q-7 0-12-5t-5-13v-106q0-8 5-13t12-6h108q7 0 12 6t5 13z m-1 208l10 257q0 6-5 10-7 6-14 6h-122q-6 0-14-6-5-4-5-12l9-255q0-5 6-9t13-3h103q8 0 14 3t5 9z m-7 522l428-786q20-35-1-70-9-17-26-26t-35-10h-858q-18 0-35 10t-26 26q-21 35-1 70l429 786q9 17 26 27t36 10 36-10 27-27z" horiz-adv-x="1000" />

<glyph glyph-name="attention-circled" unicode="&#xe81a;" d="M429 779q116 0 215-58t156-156 57-215-57-215-156-156-215-58-216 58-155 156-58 215 58 215 155 156 216 58z m71-696v106q0 8-5 13t-12 5h-107q-8 0-13-5t-6-13v-106q0-8 6-13t13-6h107q7 0 12 6t5 13z m-1 192l10 346q0 7-6 10-5 5-13 5h-123q-8 0-13-5-6-3-6-10l10-346q0-6 5-10t14-4h103q8 0 13 4t6 10z" horiz-adv-x="857.1" />

<glyph glyph-name="tag" unicode="&#xe81b;" d="M250 600q0 30-21 51t-50 20-51-20-21-51 21-50 51-21 50 21 21 50z m595-321q0-30-20-51l-274-274q-22-21-51-21-30 0-50 21l-399 399q-21 21-36 57t-15 65v232q0 29 21 50t50 22h233q29 0 65-15t57-36l399-399q20-21 20-50z" horiz-adv-x="857.1" />

<glyph glyph-name="docs" unicode="&#xf0c5;" d="M946 636q23 0 38-16t16-38v-678q0-23-16-38t-38-16h-535q-23 0-38 16t-16 38v160h-303q-23 0-38 16t-16 38v375q0 22 11 49t27 42l228 228q15 16 42 27t49 11h232q23 0 38-16t16-38v-183q38 23 71 23h232z m-303-119l-167-167h167v167z m-357 214l-167-167h167v167z m109-361l176 176v233h-214v-233q0-22-15-37t-38-16h-233v-357h286v143q0 22 11 49t27 42z m534-449v643h-215v-232q0-22-15-38t-38-15h-232v-358h500z" horiz-adv-x="1000" />

<glyph glyph-name="angle-left" unicode="&#xf104;" d="M350 546q0-7-6-12l-219-220 219-219q6-6 6-13t-6-13l-28-28q-5-5-12-5t-13 5l-260 261q-6 5-6 12t6 13l260 260q5 6 13 6t12-6l28-28q6-5 6-13z" horiz-adv-x="357.1" />

<glyph glyph-name="angle-right" unicode="&#xf105;" d="M332 314q0-7-5-12l-261-261q-5-5-12-5t-13 5l-28 28q-6 6-6 13t6 13l219 219-219 220q-6 5-6 12t6 13l28 28q5 6 13 6t12-6l261-260q5-5 5-13z" horiz-adv-x="357.1" />

<glyph glyph-name="angle-up" unicode="&#xf106;" d="M600 189q0-7-6-12l-28-28q-5-6-12-6t-13 6l-220 219-219-219q-5-6-13-6t-12 6l-28 28q-6 5-6 12t6 13l260 260q5 6 12 6t13-6l260-260q6-5 6-13z" horiz-adv-x="642.9" />

<glyph glyph-name="angle-down" unicode="&#xf107;" d="M600 439q0-7-6-12l-260-261q-5-5-13-5t-12 5l-260 261q-6 5-6 12t6 13l28 28q5 6 12 6t13-6l219-219 220 219q5 6 13 6t12-6l28-28q6-5 6-13z" horiz-adv-x="642.9" />

<glyph glyph-name="circle-empty" unicode="&#xf10c;" d="M429 654q-83 0-153-41t-110-111-41-152 41-152 110-111 153-41 152 41 110 111 41 152-41 152-110 111-152 41z m428-304q0-117-57-215t-156-156-215-58-216 58-155 156-58 215 58 215 155 156 216 58 215-58 156-156 57-215z" horiz-adv-x="857.1" />

<glyph glyph-name="circle" unicode="&#xf111;" d="M857 350q0-117-57-215t-156-156-215-58-216 58-155 156-58 215 58 215 155 156 216 58 215-58 156-156 57-215z" horiz-adv-x="857.1" />

<glyph glyph-name="flag-checkered" unicode="&#xf11e;" d="M464 292v107q-101-9-214-65v-103q114 53 214 61z m0 233v110q-96-4-214-70v-106q120 62 214 66z m465-258v103q-132-65-215-40v125q-11 3-21 8-3 2-19 10t-19 9-18 9-19 8-18 8-20 7-20 4-22 4-22 3-24 1q-13 0-28-2v-124h11q57 0 107-16t111-46q10-5 21-8v-105q24-9 51-9 67 0 164 51z m0 238v106q-95-51-171-51-25 0-44 4v-109q83-23 215 50z m-750 202q0-19-10-36t-26-25v-707q0-8-5-13t-13-5h-36q-7 0-12 5t-6 13v707q-16 9-25 25t-10 36q0 30 21 51t50 21 51-21 21-51z m821-36v-425q0-22-19-32-6-3-10-5-122-65-206-65-49 0-88 20l-16 7q-35 19-55 27t-51 16-63 8q-57 0-132-24t-127-57q-9-5-19-5-9 0-18 4-17 11-17 31v415q0 19 17 30 19 12 44 24t63 29 85 28 87 10q62 0 117-17t116-48q21-11 50-11 68 0 173 63 12 6 17 9 17 9 35-1 17-11 17-31z" horiz-adv-x="1000" />

<glyph glyph-name="attention-alt" unicode="&#xf12a;" d="M286 154v-125q0-15-11-25t-25-11h-143q-14 0-25 11t-11 25v125q0 14 11 25t25 10h143q15 0 25-10t11-25z m17 589l-16-429q-1-14-12-25t-25-10h-143q-14 0-25 10t-12 25l-15 429q-1 14 10 25t24 11h179q14 0 25-11t10-25z" horiz-adv-x="357.1" />

<glyph glyph-name="dot-circled" unicode="&#xf192;" d="M571 350q0-59-41-101t-101-42-101 42-42 101 42 101 101 42 101-42 41-101z m-142 304q-83 0-153-41t-110-111-41-152 41-152 110-111 153-41 152 41 110 111 41 152-41 152-110 111-152 41z m428-304q0-117-57-215t-156-156-215-58-216 58-155 156-58 215 58 215 155 156 216 58 215-58 156-156 57-215z" horiz-adv-x="857.1" />

<glyph glyph-name="circle-thin" unicode="&#xf1db;" d="M429 707q-73 0-139-28t-114-76-76-114-29-139 29-139 76-113 114-77 139-28 138 28 114 77 76 113 29 139-29 139-76 114-114 76-138 28z m428-357q0-117-57-215t-156-156-215-58-216 58-155 156-58 215 58 215 155 156 216 58 215-58 156-156 57-215z" horiz-adv-x="857.1" />

<glyph glyph-name="sliders" unicode="&#xf1de;" d="M196 64v-71h-196v71h196z m197 72q14 0 25-11t11-25v-143q0-14-11-25t-25-11h-143q-14 0-25 11t-11 25v143q0 15 11 25t25 11h143z m89 214v-71h-482v71h482z m-357 286v-72h-125v72h125z m732-572v-71h-411v71h411z m-536 643q15 0 26-10t10-26v-142q0-15-10-25t-26-11h-142q-15 0-25 11t-11 25v142q0 15 11 26t25 10h142z m358-286q14 0 25-10t10-25v-143q0-15-10-25t-25-11h-143q-15 0-25 11t-11 25v143q0 14 11 25t25 10h143z m178-71v-71h-125v71h125z m0 286v-72h-482v72h482z" horiz-adv-x="857.1" />

<glyph glyph-name="genderless" unicode="&#xf22d;" d="M571 314q0 104-73 177t-177 73-176-73-74-177 74-176 176-74 177 74 73 176z m72 0q0-65-25-124t-69-103-103-69-125-25-124 25-103 69-69 103-25 124 25 125 69 103 103 68 124 26 125-26 103-68 69-103 25-125z" horiz-adv-x="714.3" />
</font>
</defs>
</svg>